<?xml version="1.0" standalone="no"?>
<!DOCTYPE svg PUBLIC "-//W3C//DTD SVG 1.1//EN" "http://www.w3.org/Graphics/SVG/1.1/DTD/svg11.dtd">
<svg xmlns="http://www.w3.org/2000/svg">
<metadata>Copyright (C) 2017 by original authors @ fontello.com</metadata>
<defs>
<font id="fontello" horiz-adv-x="1000" >
<font-face font-family="fontello" font-weight="400" font-stretch="normal" units-per-em="1000" ascent="850" descent="-150" />
<missing-glyph horiz-adv-x="1000" />
<glyph glyph-name="cancel" unicode="&#xe800;" d="M0 90q0 36 26 62l195 195-195 196q-26 25-26 61t26 61 61 25 61-25l196-196 195 196q25 25 61 25t61-25 25-61-25-61l-195-196 195-195q25-26 25-62t-25-61q-25-25-61-25t-61 25l-195 195-196-195q-25-25-61-25t-61 25q-26 26-26 61z" horiz-adv-x="686.5" />

<glyph glyph-name="clouds-flash" unicode="&#xe802;" d="M0 336q0 90 64 154t155 65q17 0 31-2 1 4 4 4-4 18-4 29 0 72 51 123t123 51h13q73 89 188 89t187-89h14q72 0 123-51t50-123q0-66-46-117 46-59 46-133 0-90-64-154t-154-65q-42 0-78 14-82-72-193-74l-10-20 62-62-187-125 62 125-62 62 45 30q-72 19-123 64-37-14-78-14-90 0-155 65t-64 154z m63 0q0-64 45-110t111-46q48 0 89 29 74-89 188-92l47 6q89 15 148 86 41-29 90-29 64 0 110 46t46 110q0 52-33 96-23 29-56 44t-67 16l-26-2q-18-3-33-9-32 62-91 99-59 37-131 37-104 0-178-76-24-24-41-55-1-3-4-5-27 11-58 11-65 0-111-46t-45-110z m255 285q82 59 182 59 73 0 140-34 66-32 110-93 13 2 31 2 70 0 129-41 27 31 27 72 0 47-32 79t-79 32q-23 0-43-8-22 45-65 72t-93 26-94-26-64-72q-21 8-43 8-37 0-66-21-28-21-40-55z" horiz-adv-x="1000" />

<glyph glyph-name="clouds" unicode="&#xe803;" d="M0 131q0 90 64 154t155 65q17 0 31-2 1 4 4 4-4 18-4 29 0 72 51 123t123 51h13q73 90 188 90t187-90h14q72 0 123-51t50-123q0-66-46-117 46-61 46-133 0-90-64-154t-154-65q-42 0-78 14-88-76-203-76t-203 76q-37-14-78-14-90 0-155 65t-64 154z m63 0q0-64 45-110t111-46q48 0 89 29 77-92 192-92t191 92q41-29 90-29 64 0 110 46t46 110q0 52-33 96-23 29-56 44t-67 16l-26-2q-18-3-33-9-32 62-91 99-59 37-131 37-104 0-178-76-24-26-41-55 0-5-4-5-27 11-58 11-65 0-111-46t-45-110z m255 285q82 59 182 59 73 0 140-33 66-33 110-94 13 2 31 2 71 0 129-43 27 33 27 74 0 47-32 79t-79 32q-23 0-43-8-22 43-65 71-43 27-93 27t-94-27q-43-28-64-71-21 8-43 8-37 0-66-21-28-21-40-55z" horiz-adv-x="1000" />

<glyph glyph-name="hail" unicode="&#xe804;" d="M0 506q0 90 64 154t155 65q17 0 31-2 43 61 109 93 68 33 141 33t140-33q66-32 110-93 13 2 31 2 90 0 154-65t64-154-64-154-154-65q-42 0-78 14-88-76-203-76t-203 76q-37-14-78-14-90 0-155 65t-64 154z m63 0q0-64 45-110t111-46q28 0 54 10l35 13 30-25q70-61 162-61t162 61l29 25 35-13q27-10 55-10 64 0 110 46t46 110-46 110-110 46q-13 0-22-2l-37-6-23 32q-74 101-199 101t-199-101l-24-32-37 6q-8 2-21 2-65 0-111-46t-45-110z m62-344q0 26 19 44t43 19 43-20q20-17 20-43t-19-44-44-18-43 18-19 44z m125-250q0 26 18 44t44 19 43-20q20-17 20-43t-19-44-44-18-44 18-18 44z m187 188q0 25 19 44t44 18 43-19q19-18 19-43t-18-44-44-19-44 19-19 44z m188-188q0 26 18 44t44 19 43-20q20-17 20-43t-19-44-44-18-44 18-18 44z m125 250q0 26 18 44t44 19 43-20q20-17 20-43t-19-44-44-18-44 18-18 44z" horiz-adv-x="1000" />

<glyph glyph-name="snow-heavy" unicode="&#xe805;" d="M0 506q0 90 64 154t155 65q17 0 31-2 43 61 109 93 68 33 141 33t140-33q66-32 110-93 13 2 31 2 90 0 154-65t64-154-64-154-154-65q-42 0-78 14-88-76-203-76t-203 76q-37-14-78-14-90 0-155 65t-64 154z m60-392q-1 3-1 7 0 14 15 18l24 6q0 12 6 21l-18 18q-7 7-7 14t7 14q7 8 15 8 7 0 14-7l18-17q9 3 21 5l6 24q5 15 17 15 4 0 8-2 16-4 16-17 0-3-2-8l-6-23q5-3 8-6 4-5 8-10l23 8q3 0 6 0 15 0 20-16 1-4 1-8 0-13-17-17l-23-6q0-12-6-21l17-18q9-7 9-15 0-6-8-13-7-8-15-8-8 0-15 7l-16 17q-11-3-21-6l-8-23q-3-16-16-16-4 0-8 1-16 4-16 18 0 4 1 9l6 23q-7 4-16 16l-23-8q-3-1-5-1-16 0-19 17z m3 392q0-64 45-110t111-46q48 0 89 29 77-92 192-92t191 92q41-29 90-29 64 0 110 46t46 110-46 110-110 46q-31 0-59-12-32 62-91 100-59 37-131 37t-131-37q-59-38-92-100-27 12-58 12-65 0-111-46t-45-110z m81-381q7-7 14-7l15 7q7 7 7 13 0 7-8 15-7 8-15 8l-13-7q-8-8-8-15t8-14z m204-163q3 15 15 21l35 21q-2 10-2 19t2 18l-35 20q-12 8-15 21-2 5-2 10 0 8 4 17 7 12 21 16t27-4l35-21q14 14 32 19v41q0 14 10 25t25 11 24-11 11-25v-41q17-5 31-19l35 21q14 8 28 4t20-16q7-13 3-27t-16-21l-35-20q2-9 2-18t-2-19l35-21q12-6 16-21t-3-26q-7-12-21-16t-27 4l-35 20q-14-12-31-18v-41q0-15-11-25t-24-10-25 10-10 25v41q-17 6-32 18l-35-20q-13-7-27-4t-21 16q-4 7-4 16 0 5 2 10z m117 61q0-15 10-25t25-9 23 9q12 10 12 25t-11 24-24 10-25-10-10-24z m277 81q4 15 17 15 4 0 8-2l24-5q3 5 7 9 3 3 8 6l-6 24q-1 4-1 8 0 13 15 17 4 1 8 1 13 0 17-15l6-23q12-2 22-6l17 18q8 6 14 6 8 0 16-7 6-8 6-15t-6-14l-18-17q6-10 6-22l23-6q16-4 16-18 0-3-1-7-4-16-19-16-3 0-5 0l-24 8q-8-12-16-15l6-24q2-5 2-9 0-13-16-17-5-1-8-1-13 0-17 15l-7 24q-13 2-22 6l-16-18q-7-7-14-7-8 0-16 8-7 7-7 14 0 7 8 15l18 17q-6 9-6 22l-24 5q-17 5-17 18 0 3 2 8z m85-41q7-7 14-7l15 7q7 7 7 13 0 7-8 14-7 8-15 8l-13-7q-8-7-8-14t8-14z" horiz-adv-x="1000" />

<glyph glyph-name="snow-alt" unicode="&#xe806;" d="M0 506q0 90 64 154t155 65q17 0 31-2 43 61 109 93 68 33 141 33t140-33q66-32 110-93 13 2 31 2 90 0 154-65t64-154-64-154-154-65q-34 0-67 12-3 16-11 27-9 19-31 34 1 0 5 5t9 8 5 6q41-29 90-29 64 0 110 46t46 110-46 110-110 46q-31 0-59-12-32 62-91 100-59 37-131 37t-131-37q-59-38-92-100-27 12-58 12-65 0-111-46t-45-110 45-110 111-46q48 0 89 29 0-2 20-19-22-15-31-34-8-11-12-27-33-12-66-12-90 0-155 65t-64 154z m348-356q3 14 15 20l35 22q-2 9-2 18t2 19l-35 19q-12 8-15 22-2 5-2 9 0 8 4 17 7 13 21 17t27-4l35-22q14 14 32 20v41q0 13 10 24t25 11 24-11 11-24v-41q17-6 31-20l35 22q14 8 28 4t20-17q4-8 4-17 0-4-1-9-4-14-16-22l-35-19q2-10 2-19t-2-18l35-22q12-6 16-20 1-6 1-11 0-8-4-16-7-12-21-15t-27 4l-35 19q-14-12-31-17v-41q0-16-11-26t-24-10-25 10-10 26v41q-17 5-32 17l-35-19q-13-8-27-4t-21 15q-4 8-4 16 0 5 2 11z m117 60q0-14 10-24t25-10 23 10q12 10 12 24t-11 25-24 9-25-9-10-25z" horiz-adv-x="1000" />

<glyph glyph-name="snow" unicode="&#xe807;" d="M0 506q0 90 64 154t155 65q17 0 31-2 43 61 109 93 68 33 141 33t140-33q66-32 110-93 13 2 31 2 90 0 154-65t64-154-64-154-154-65q-42 0-78 14-88-76-203-76t-203 76q-37-14-78-14-90 0-155 65t-64 154z m63 0q0-64 45-110t111-46q48 0 89 29 77-92 192-92t191 92q41-29 90-29 64 0 110 46t46 110-46 110-110 46q-31 0-59-12-32 62-91 100-59 37-131 37t-131-37q-59-38-92-100-27 12-58 12-65 0-111-46t-45-110z m285-544q3 15 15 21l35 21q-2 10-2 19t2 18l-35 20q-12 8-15 21-2 5-2 10 0 8 4 17 7 12 21 16t27-4l35-21q14 14 32 19v41q0 14 10 25t25 11 24-11 11-25v-41q17-5 31-19l35 21q14 8 28 4t20-16q4-9 4-17 0-5-1-10-4-13-16-21l-35-20q2-9 2-18t-2-19l35-21q12-6 16-21 1-5 1-10 0-9-4-16-7-12-21-16t-27 4l-35 20q-14-12-31-18v-41q0-15-11-25t-24-10-25 10-10 25v41q-17 6-32 18l-35-20q-13-7-27-4t-21 16q-4 7-4 16 0 5 2 10z m117 61q0-15 10-25t25-9 23 9q12 10 12 25t-11 24-24 10-25-10-10-24z" horiz-adv-x="1000" />

<glyph glyph-name="windy-rain" unicode="&#xe808;" d="M0 318q0 12 9 21t22 9h250q14 0 23-9t8-21q0-14-9-23t-22-10h-250q-13 0-22 10t-9 23z m0 124q0 13 9 22t22 9h125q14 0 23-9t8-22q0-13-9-22t-22-10h-125q-13 0-22 10t-9 22z m63 125q0 13 8 22t23 9h125q13 0 22-9t9-22q0-13-9-22t-22-10h-125q-13 0-22 10t-9 22z m208-49q0 77 54 133t132 60q74 76 178 76t179-76q78-4 132-60t53-133q0-82-56-139t-139-57q-17 0-33 2-62-39-136-39t-135 39q-16-2-35-2-80 0-137 57t-57 139z m63 0q0-55 38-94t93-39q26 0 46 8 56-45 124-45t122 45q23-8 47-8 55 0 94 39t39 94-39 92-94 38h-17q-57 77-152 77t-151-77h-19q-55 0-93-38t-38-92z m103-418q0 35 63 125l15-24q18-26 32-54 15-32 15-47 0-25-18-44t-44-19-44 19-19 44z m250-125q0 35 63 125l15-24q18-26 31-54 16-32 16-47 0-25-18-44t-44-19-44 19-19 44z" horiz-adv-x="1000" />

<glyph glyph-name="sunrise" unicode="&#xe80a;" d="M213 498q-11 12-11 23t11 22 22 11 23-11l43-45q10-11 10-21t-10-22-22-11l-21 11z m68-304q0 13 9 22t22 9h375q14 0 23-9t8-22-8-23-23-9h-375q-13 0-22 9t-9 23z m4 93q12 81 72 134 61 54 143 54t142-54q61-53 72-134h-62q-9 55-53 90-43 35-99 35t-100-35q-43-35-52-90h-63z m59-218q0 13 8 22t23 9h250q13 0 22-9t9-22-9-23-22-9h-250q-14 0-23 9t-8 23z m125 499v63q0 14 8 22t23 9 22-9 9-22v-63q0-13-9-22t-22-9-23 9-8 22z m230-113q-11 11-11 22t11 21l43 45q12 11 23 11t22-11 10-22-10-23l-45-43q-11-11-22-11z" horiz-adv-x="1000" />

<glyph glyph-name="sun" unicode="&#xe80b;" d="M94 350q0 13 9 22t22 9h62q14 0 23-9t9-22-9-23-23-8h-62q-14 0-22 8t-9 23z m119-287q-11 11-11 22t11 23l45 43q10 12 22 12l21-11q10-12 10-23t-10-21l-43-45q-12-11-23-11t-22 11z m0 529q-11 12-11 23t11 22 22 10 23-10l43-45q10-11 10-22t-10-21-22-11l-21 11z m68-242q0 90 65 154t154 64 154-64 64-154-64-154-154-65-154 65-65 154z m63 0q0-65 45-111t111-45 109 44q47 47 47 112t-46 110-110 46-111-46-45-110z m125-375v62q0 14 8 23t23 9 22-9 9-23v-62q0-14-9-23t-22-8-23 8-8 23z m0 687v63q0 13 8 22t23 9 22-9 9-22v-63q0-14-9-22t-22-9-23 9-8 22z m230-554q-11 10-11 21t11 22 21 10l22-10 45-43q10-12 10-23t-10-22-22-11-23 11z m0 441q-11 11-11 21t11 22l43 45q12 10 23 10t22-10 10-22-10-23l-45-43q-11-11-22-11z m82-199q0 13 9 22t22 9h63q13 0 22-9t9-22-9-23-22-8h-63q-14 0-22 8t-9 23z" horiz-adv-x="1000" />

<glyph glyph-name="moon" unicode="&#xe80c;" d="M256 356q0 103 74 177 39 39 94 59 5 2 10 2 12 0 21-10t10-22q0-5-2-11-11-30-11-62 0-21 5-42 12-52 50-90t90-50q21-5 42-5 32 0 62 11 6 2 11 2 12 0 22-10t10-21q0-5-2-10-20-55-59-94-74-74-177-74t-177 73-73 177z m62 1q0-78 55-134 54-54 131-54 6 0 12 0 86 6 136 71-10 0-20 0-98 0-170 72t-72 170q0 10 0 20-10-6-17-14-55-54-55-131z" horiz-adv-x="1000" />

<glyph glyph-name="mist" unicode="&#xe80e;" d="M61 258q0 14 10 22t27 9h168q-11 31-14 63h-98q-13 0-22 8t-9 23 9 22 22 9h98q3 31 14 63h-174q-14 0-23 8t-8 23 8 22 23 9h203q38 56 100 91 61 34 134 34 108 0 186-72 80-73 91-178h160q14 0 23-9t9-22-9-23-23-8h-160q-3-32-13-63h43q15 0 26-9t11-22-11-22-26-9h-73q-38-56-100-91-61-34-134-34t-134 34q-62 35-100 91h-197q-16 0-27 9t-10 22z m253 94q4-33 18-63h394q14 30 18 63h-430z m0 62h430q-12 81-72 134-61 54-143 54-87 0-152-63h152q14 0 22-9t9-22-9-23-22-8h-197q-14-30-18-63z m63-187q65-63 152-63t152 63h-304z" horiz-adv-x="1000" />

<glyph glyph-name="temperature" unicode="&#xe815;" d="M375 37q0 73 62 108v574q0 28 19 48 18 20 44 20t44-20q18-20 18-48v-574q63-35 63-108 0-50-37-87t-89-38q-52 0-88 38-36 37-36 87z" horiz-adv-x="1000" />

<glyph glyph-name="celcius" unicode="&#xe817;" d="M283 424q-13 28 0 58t41 40q29 12 59-1t43-40q5-12 5-28t-5-29q-12-27-42-39-31-12-60 0t-41 39z m37 29q0-13 10-23t24-10 25 10 9 23-9 24-25 9-24-9-10-24z m166-170v129q0 51 40 81t91 30q69 0 105-33l-33-52q-27 23-70 23-26 0-45-15t-20-47v-100q0-32 20-47t45-15q38 0 72 23l31-53q-43-35-103-35-53 0-93 30t-40 81z" horiz-adv-x="1000" />

<glyph glyph-name="cloud-sun" unicode="&#xe818;" d="M0 131q0 88 62 151t149 68q-24 45-24 93 0 90 65 155t154 64q89 0 153-62 63-62 66-153 75-32 125-99 13 2 31 2 90 0 154-65t64-154-64-154-154-65q-42 0-78 14-88-76-203-76t-203 76q-37-14-78-14-90 0-155 65t-64 154z m0 312q0 14 9 23t22 9h63q13 0 22-9t9-23-9-22-22-9h-63q-13 0-22 9t-9 22z m63-312q0-64 45-110t111-46q48 0 89 29 77-92 192-92t191 92q41-29 90-29 64 0 110 46t46 110-46 110-110 46q-31 0-59-11-37 70-107 107-28 16-59 21-28 8-56 8-115 0-192-90-19-23-31-46-1 0-15 3-23 8-43 8-65 0-111-46t-45-110z m56 555q-11 11-11 22t11 22 22 11 23-11l43-44q11-11 11-22t-11-21-22-11l-21 11z m131-243q0-37 19-72 92 104 231 104 27 0 60-6-9 56-52 94t-102 37q-64 0-110-46t-46-111z m125 313v62q0 14 9 23t22 8 23-8 8-23v-62q0-14-8-23t-23-8-22 8-9 23z m230-113q-11 10-11 21t11 22l43 44q12 11 23 11t22-11 11-22-11-22l-45-43q-11-11-21-11z m82-200q0 14 9 23t22 9h63q14 0 22-9t9-23-9-22-22-9h-63q-13 0-22 9t-9 22z" horiz-adv-x="1000" />

<glyph glyph-name="cloud-moon" unicode="&#xe819;" d="M2 131q0 90 64 154t155 65q17 0 31-2 78 107 211 125-10 31-10 64 0 30 9 63 16 66 63 113 39 39 94 58 7 3 13 3 11 0 20-9 10-11 10-22 0-5-2-11-12-32-12-65 0-20 4-39 12-52 50-91 38-39 91-51 20-4 39-4 33 0 66 12 5 2 10 2 12 0 22-10 10-9 10-20 0-6-3-13-20-54-59-93-7-8-27-22 66-21 108-78 42-57 42-129 0-90-64-154t-154-65q-42 0-78 14-88-76-203-76t-203 76q-37-14-78-14-90 0-155 65t-64 154z m62 0q0-64 46-110t111-46q48 0 89 29 77-92 192-92t191 92q41-29 90-29 64 0 110 46t46 110-46 110-110 46q-31 0-59-11-2 2-5 6t-3 7q-25 40-58 69-38 28-84 43-35 11-72 11-14 0-14-2-69-2-123-39-54-37-86-95-27 11-58 11-65 0-111-46t-46-110z m455 445q-4-20-4-40 0-33 12-63 134-10 219-117 65 15 103 64-8 0-15 0-101 0-176 73-73 73-73 171 0 10 1 20-8-6-16-14-39-39-51-94z" horiz-adv-x="1000" />

<glyph glyph-name="fog-sun" unicode="&#xe81a;" d="M94 8q0 14 9 23t22 8h750q13 0 22-8t9-23-9-22-22-9h-750q-14 0-22 9t-9 22z m0 125q0 14 9 23t22 8h750q13 0 22-8t9-23-9-22-22-9h-750q-14 0-22 9t-9 22z m0 125q0 14 9 22t22 9h750q13 0 22-9t9-22-9-22-22-9h-750q-14 0-22 9t-9 22z m0 125q0 14 9 22t22 9h62q14 0 23-9t9-22-9-23-23-8h-62q-14 0-22 8t-9 23z m119 242q-11 12-11 23t11 22 22 11 23-11l43-45q10-11 10-21t-10-22-22-11l-21 11z m68-242q0 90 65 154t154 65 154-65 64-154q0-9-4-31h-62q4 16 4 31 0 64-46 110t-110 46-111-46-45-110q0-15 4-31h-63q-4 22-4 31z m188 312v63q0 13 8 22t23 9 22-9 9-22v-63q0-13-9-22t-22-9-23 9-8 22z m230-113q-11 11-11 22t11 21l43 45q12 11 23 11t22-11 10-22-10-23l-45-43q-11-11-22-11z m82-199q0 14 9 22t22 9h63q13 0 22-9t9-22-9-23-22-8h-63q-14 0-22 8t-9 23z" horiz-adv-x="1000" />

<glyph glyph-name="fog-moon" unicode="&#xe81b;" d="M94 8q0 14 9 23t22 8h750q13 0 22-8t9-23-9-22-22-9h-750q-14 0-22 9t-9 22z m0 125q0 14 9 23t22 8h750q13 0 22-8t9-23-9-22-22-9h-750q-14 0-22 9t-9 22z m0 125q0 14 9 22t22 9h750q13 0 22-9t9-22-9-22-22-9h-750q-14 0-22 9t-9 22z m188 254q9 88 71 150 39 39 94 59 6 2 11 2 12 0 22-10t10-21q0-5-2-10-12-33-12-66 0-20 4-40 12-52 51-91 39-38 91-49 19-5 39-5l65 12q6 2 10 2 12 0 22-9t9-22q0-6-2-12-10-27-23-50h-82q15 13 17 17-9 0-19 0-99 0-171 73-74 74-74 176 0 7 1 15-7-6-16-14-54-55-54-133t54-132l2-2h-80q-39 61-39 132 0 14 1 28z" horiz-adv-x="1000" />

<glyph glyph-name="fog-cloud" unicode="&#xe81c;" d="M0 6q0 14 9 23t22 8h937q14 0 23-8t8-23-8-22-23-9h-937q-13 0-22 9t-9 22z m0 125q0 14 9 23t22 8h937q14 0 23-8t8-23-8-22-23-9h-937q-13 0-22 9t-9 22z m0 125q0 14 9 23t22 8h937q14 0 23-8t8-23-8-22-23-9h-937q-13 0-22 9t-9 22z m0 125q0 90 64 154t155 65q17 0 31-2 43 61 109 93 68 34 141 34t140-34q66-32 110-93 13 2 31 2 90 0 154-65t64-154q0-9-3-31h-63q4 16 4 31 0 64-46 110t-110 46q-31 0-59-12-32 62-91 100-59 37-131 37t-131-37q-59-38-92-100-27 12-58 12-65 0-111-46t-45-110q0-15 3-31h-62q-4 22-4 31z" horiz-adv-x="1000" />

<glyph glyph-name="fog" unicode="&#xe81d;" d="M187 194q0 13 9 22t23 9h562q14 0 22-9t9-22-9-23-22-9h-562q-14 0-23 9t-9 23z m0 125q0 13 9 22t23 9h562q14 0 22-9t9-22-9-23-22-9h-562q-14 0-23 9t-9 23z m0 124q0 14 9 23t23 9h562q14 0 22-9t9-23-9-22-22-9h-562q-14 0-23 9t-9 22z m0 125q0 14 9 23t23 9h562q14 0 22-9t9-23-9-22-22-9h-562q-14 0-23 9t-9 22z" horiz-adv-x="1000" />

<glyph glyph-name="cloud" unicode="&#xe81e;" d="M0 319q0 89 64 154t155 64q17 0 31-2 43 61 109 94 68 33 141 33t140-33q66-33 110-94 13 2 31 2 90 0 154-64t64-154-64-155-154-64q-42 0-78 14-88-77-203-77t-203 77q-37-14-78-14-90 0-155 64t-64 155z m63 0q0-65 45-111t111-46q48 0 89 30 77-92 192-92t191 92q41-30 90-30 64 0 110 46t46 111-46 110-110 46q-31 0-59-12-32 62-91 100-59 37-131 37t-131-37q-59-38-92-100-27 12-58 12-65 0-111-46t-45-110z" horiz-adv-x="1000" />

<glyph glyph-name="cloud-flash" unicode="&#xe81f;" d="M0 506q0 90 64 154t155 65q17 0 31-2 43 61 109 93 68 33 141 33t140-33q66-32 110-93 13 2 31 2 90 0 154-65t64-154-64-154-154-65q-42 0-78 14-76-66-182-74l-21-65 62-62-187-188 62 188-62 62 68 69q-84 15-146 70-37-14-78-14-90 0-155 65t-64 154z m63 0q0-64 45-110t111-46q48 0 89 29 77-92 192-92l43 6q89 15 148 86 41-29 90-29 64 0 110 46t46 110-46 110-110 46q-31 0-59-12-32 62-91 100-59 37-131 37t-131-37q-59-38-92-100-27 12-58 12-65 0-111-46t-45-110z" horiz-adv-x="1000" />

<glyph glyph-name="cloud-flash-alt" unicode="&#xe820;" d="M0 506q0 90 64 154t155 65q17 0 31-2 43 61 109 93 68 33 141 33t140-33q66-32 110-93 13 2 31 2 90 0 154-65t64-154-64-154-154-65q-42 0-78 14-47-41-111-61l25 79q45 26 74 60 41-29 90-29 64 0 110 46t46 110-46 110-110 46q-31 0-59-12-32 62-91 100-59 37-131 37t-131-37q-59-38-92-100-27 12-58 12-65 0-111-46t-45-110 45-110 111-46q48 0 89 29 45-55 118-78l-49-49q-48 20-80 49-37-14-78-14-90 0-155 65t-64 154z m375-594l62 188-62 62 187 188-62-188 62-62z" horiz-adv-x="1000" />

<glyph glyph-name="drizzle" unicode="&#xe821;" d="M0 443q0 90 64 155t155 64q17 0 31-2 43 61 109 94 68 33 141 33t140-33q66-33 110-94 13 2 31 2 90 0 154-64t64-155-64-154-154-64q-42 0-78 13-88-76-203-76t-203 76q-37-13-78-13-90 0-155 64t-64 154z m63 0q0-64 45-110t111-46q48 0 89 30 77-92 192-92t191 92q41-30 90-30 64 0 110 46t46 110-46 111-110 46q-31 0-59-12-32 62-91 99-59 38-131 38t-131-38q-59-37-92-99-27 12-58 12-65 0-111-46t-45-111z m374-468q0 35 63 125l15-24q18-26 32-54 15-32 15-47 0-25-18-44t-44-19-44 19-19 44z" horiz-adv-x="1000" />

<glyph glyph-name="rain" unicode="&#xe822;" d="M0 506q0 90 64 154t155 65q17 0 31-2 43 61 109 93 68 33 141 33t140-33q66-32 110-93 13 2 31 2 90 0 154-65t64-154-64-154-154-65q-42 0-78 14-88-76-203-76t-203 76q-37-14-78-14-90 0-155 65t-64 154z m63 0q0-64 45-110t111-46q48 0 89 29 77-92 192-92t191 92q41-29 90-29 64 0 110 46t46 110-46 110-110 46q-31 0-59-12-32 62-91 100-59 37-131 37t-131-37q-59-38-92-100-27 12-58 12-65 0-111-46t-45-110z m124-406q0 35 63 125l16-24q17-26 31-54 15-32 15-47 0-25-18-44t-44-19-44 19-19 44z m252-188q0 35 63 125l15-23q18-27 32-55 15-32 15-47 0-25-18-44t-44-18-44 18-19 44z m248 63q0 35 63 125l15-24q18-26 31-54 16-32 16-47 0-25-18-44t-44-19-44 19-19 44z" horiz-adv-x="1000" />

<glyph glyph-name="windy" unicode="&#xe823;" d="M0 131q0 14 9 23t22 8h250q14 0 23-8t8-23-8-22-23-9h-250q-13 0-22 9t-9 22z m0 125q0 14 9 23t22 8h125q14 0 23-8t8-23-8-22-23-9h-125q-13 0-22 9t-9 22z m63 125q0 14 8 22t23 9h125q13 0 22-9t9-22-9-22-22-9h-125q-14 0-23 9t-8 22z m208-51q0 78 54 135 54 57 132 60 74 77 178 77t179-77q78-3 132-60 53-57 53-135 0-80-56-136t-139-57q-17 0-33 2-62-41-136-41t-135 41q-16-2-35-2-80 0-137 57t-57 136z m63 0q0-54 38-92t93-39q26 0 46 8 56-47 124-47 70 0 122 47 23-8 47-8 55 0 94 39t39 92-39 94-94 39q-9 0-17-2-56 78-152 78t-151-78q-8 2-19 2-55 0-93-39t-38-94z" horiz-adv-x="1000" />

<glyph glyph-name="clouds-flash-alt" unicode="&#xe82a;" d="M0 336q0 90 64 154t155 65q17 0 31-2 1 4 4 4-4 18-4 29 0 72 51 123t123 51h13q73 89 188 89t187-89h14q72 0 123-51t50-123q0-66-46-117 46-59 46-133 0-90-64-154t-154-65q-40 0-78 16-40-36-92-57l-35 36 12 23q63 26 103 74 41-29 90-29 64 0 110 46t46 110q0 52-33 96-23 29-56 44t-67 16l-26-2q-18-3-33-9-32 62-91 99-59 37-131 37-104 0-178-76-24-24-41-55-1-3-4-5-27 11-58 11-65 0-111-46t-45-110 45-110 111-46q48 0 89 29 21-25 51-45l-56-37-6 4q-37-14-78-14-90 0-155 65t-64 154z m318 285q82 59 182 59 73 0 140-34 66-32 110-93 13 2 31 2 70 0 129-41 27 31 27 72 0 47-32 79t-79 32q-23 0-43-8-22 45-65 72t-93 26-94-26-64-72q-21 8-43 8-37 0-66-21-28-21-40-55z m57-771l62 187-62 63 187 125-62-125 62-63z" horiz-adv-x="1000" />

<glyph glyph-name="fahrenheit" unicode="&#xe82b;" d="M276 461q2 20 15 36t32 23q30 11 60 0t41-39q12-28 0-57t-41-41q-14-6-31-6t-30 6q-28 12-41 40-7 19-5 38z m42-10q0-13 10-23t24-10 25 10 10 23-10 24-25 9-24-9-10-24z m168-277v346h238v-63h-170v-80h145v-62h-145v-141h-68z" horiz-adv-x="1000" />

<glyph glyph-name="snowflake" unicode="&#xe82c;" d="M224 240q6 25 28 39l64 38q-4 16-4 33t4 35l-64 35q-22 14-28 39-2 9-2 17 0 16 7 31 13 22 38 28 9 2 17 2 16 0 30-8l65-37q28 22 58 33v75q0 25 19 44t44 18 44-18 18-44v-75q31-11 59-33l64 37q13 8 29 8 8 0 18-3 25-6 38-28 8-14 8-30 0-8-2-17-6-25-28-39l-65-37q4-17 4-33t-4-33l65-38q22-14 28-39 2-8 2-17 0-15-8-29-13-22-38-29-10-2-18-2-16 0-29 7l-64 37q-27-21-59-33v-74q0-25-18-44t-44-19-44 19-19 44v74q-30 12-58 33l-65-37q-13-7-28-7-9 0-19 2-25 7-38 29-8 14-8 29 0 9 3 17z m213 110q0-26 18-45 19-18 45-18t44 19 18 44-18 44-44 18-44-18-19-44z" horiz-adv-x="1000" />

<glyph glyph-name="na" unicode="&#xe82d;" d="M102 180v343h62l80-117 64-101h2v218h69v-343h-63l-86 129-58 88h-2v-217h-68z m300-22l127 383h51l-127-383h-51z m186 22l121 343h70l119-343h-74l-22 70h-119l-23-70h-72z m113 127h84l-14 45-27 90h-2l-28-88z" horiz-adv-x="1000" />

<glyph glyph-name="compass" unicode="&#xe82e;" d="M0 350q0 207 146 353t354 146 353-146 146-353-146-354-353-146-354 146-146 354z m125 0q0-154 110-265t265-110 263 109q112 112 112 266t-111 264-264 111-265-111-110-264z m187-188l125 250 250 125-125-250z" horiz-adv-x="1000" />

<glyph glyph-name="right-open" unicode="&#xf006;" d="M0 0q0 25 18 43l305 304-305 304q-18 18-18 44t18 43 44 18 43-18l390-391-390-391q-19-18-43-18t-44 18q-18 18-18 44z" horiz-adv-x="495.1" />

<glyph glyph-name="left-open" unicode="&#xf007;" d="M0 353l391 391q18 18 43 18 24 0 43-18 18-18 18-44t-18-43l-304-304 304-305q18-17 18-43t-18-43q-18-18-43-18t-43 18z" horiz-adv-x="495.1" />

<glyph glyph-name="menu" unicode="&#xf008;" d="M68 62q0-30 21-51t51-21h793q30 0 51 21t21 51-21 51-51 21h-793q-29 0-51-21t-21-51z m0 288q0-30 21-51t51-21h793q30 0 51 21t21 51-21 51-51 21h-793q-29 0-51-21t-21-51z m0 288q0-30 21-51t51-21h793q30 0 51 21t21 51-21 51-51 21h-793q-29 0-51-21t-21-51z" horiz-adv-x="1073.2" />
</font>
</defs>
</svg>